Capstone Project UoM-MSE-IE
…
## Filter year 2019
ped.year <- pedata %>% 
  filter(year(datetime) == params$year) %>% 
  arrange(sensorID, datetime)

rm(list=c("csv.data", "csv.pos", "db", "pedata"))
ped.year

## # A tibble: 456,829 x 7
##         id sensorID sensorName             count   lat  long datetime           
##      <int>    <int> <chr>                  <int> <dbl> <dbl> <dttm>             
##  1 2510010        1 Bourke Street Mall (N~   918 -37.8  145. 2019-01-01 00:00:00
##  2 2510059        1 Bourke Street Mall (N~   995 -37.8  145. 2019-01-01 01:00:00
##  3 2510108        1 Bourke Street Mall (N~   416 -37.8  145. 2019-01-01 02:00:00
##  4 2510157        1 Bourke Street Mall (N~   382 -37.8  145. 2019-01-01 03:00:00
##  5 2510206        1 Bourke Street Mall (N~   165 -37.8  145. 2019-01-01 04:00:00
##  6 2510255        1 Bourke Street Mall (N~   117 -37.8  145. 2019-01-01 05:00:00
##  7 2510304        1 Bourke Street Mall (N~    48 -37.8  145. 2019-01-01 06:00:00
##  8 2510353        1 Bourke Street Mall (N~    47 -37.8  145. 2019-01-01 07:00:00
##  9 2510402        1 Bourke Street Mall (N~    86 -37.8  145. 2019-01-01 08:00:00
## 10 2510451        1 Bourke Street Mall (N~   253 -37.8  145. 2019-01-01 09:00:00
## # ... with 456,819 more rows
…
